PWD /home/librantara/Documents/INTERNSHIP_DAN_TA/LateX/internship2ta2019/Librantara Erlangga/Jurnal/Internship_2
INPUT /usr/share/texmf-dist/web2c/texmf.cnf
INPUT /var/lib/texmf/web2c/pdftex/pdflatex.fmt
INPUT /home/librantara/Documents/INTERNSHIP_DAN_TA/LateX/internship2ta2019/Librantara Erlangga/Jurnal/Internship_2/main.tex
OUTPUT /home/librantara/Documents/INTERNSHIP_DAN_TA/LateX/internship2ta2019/Librantara Erlangga/Jurnal/Internship_2/main.log
INPUT /home/librantara/Documents/INTERNSHIP_DAN_TA/LateX/internship2ta2019/Librantara Erlangga/Jurnal/Internship_2/iaesarticle3.cls
INPUT /home/librantara/Documents/INTERNSHIP_DAN_TA/LateX/internship2ta2019/Librantara Erlangga/Jurnal/Internship_2/iaesarticle3.cls
INPUT /usr/share/texmf-dist/tex/latex/base/size10.clo
INPUT /usr/share/texmf-dist/tex/latex/base/size10.clo
INPUT /usr/share/texmf-dist/tex/latex/fancyhdr/fancyhdr.sty
INPUT /usr/share/texmf-dist/tex/latex/fancyhdr/fancyhdr.sty
INPUT /usr/share/texmf-dist/tex/latex/amsmath/amsmath.sty
INPUT /usr/share/texmf-dist/tex/latex/amsmath/amsmath.sty
INPUT /usr/share/texmf-dist/tex/latex/amsmath/amstext.sty
INPUT /usr/share/texmf-dist/tex/latex/amsmath/amstext.sty
INPUT /usr/share/texmf-dist/tex/latex/amsmath/amsgen.sty
INPUT /usr/share/texmf-dist/tex/latex/amsmath/amsgen.sty
INPUT /usr/share/texmf-dist/tex/latex/amsmath/amsbsy.sty
INPUT /usr/share/texmf-dist/tex/latex/amsmath/amsbsy.sty
INPUT /usr/share/texmf-dist/tex/latex/amsmath/amsopn.sty
INPUT /usr/share/texmf-dist/tex/latex/amsmath/amsopn.sty
INPUT /usr/share/texmf-dist/tex/latex/amsfonts/amsfonts.sty
INPUT /usr/share/texmf-dist/tex/latex/amsfonts/amsfonts.sty
INPUT /usr/share/texmf-dist/tex/latex/amsfonts/amssymb.sty
INPUT /usr/share/texmf-dist/tex/latex/amsfonts/amssymb.sty
INPUT /usr/share/texmf-dist/tex/latex/float/float.sty
INPUT /usr/share/texmf-dist/tex/latex/float/float.sty
INPUT /home/librantara/Documents/INTERNSHIP_DAN_TA/LateX/internship2ta2019/Librantara Erlangga/Jurnal/Internship_2/uarial.sty
INPUT /home/librantara/Documents/INTERNSHIP_DAN_TA/LateX/internship2ta2019/Librantara Erlangga/Jurnal/Internship_2/uarial.sty
INPUT /usr/share/texmf-dist/tex/latex/graphics/keyval.sty
INPUT /usr/share/texmf-dist/tex/latex/graphics/keyval.sty
INPUT /usr/share/texmf-dist/tex/latex/tools/tabularx.sty
INPUT /usr/share/texmf-dist/tex/latex/tools/tabularx.sty
INPUT /usr/share/texmf-dist/tex/latex/tools/array.sty
INPUT /usr/share/texmf-dist/tex/latex/tools/array.sty
INPUT /usr/share/texmf-dist/tex/latex/graphics/graphicx.sty
INPUT /usr/share/texmf-dist/tex/latex/graphics/graphicx.sty
INPUT /usr/share/texmf-dist/tex/latex/graphics/graphics.sty
INPUT /usr/share/texmf-dist/tex/latex/graphics/graphics.sty
INPUT /usr/share/texmf-dist/tex/latex/graphics/trig.sty
INPUT /usr/share/texmf-dist/tex/latex/graphics/trig.sty
INPUT /usr/share/texmf-dist/tex/latex/graphics-cfg/graphics.cfg
INPUT /usr/share/texmf-dist/tex/latex/graphics-cfg/graphics.cfg
INPUT /usr/share/texmf-dist/tex/latex/graphics-def/pdftex.def
INPUT /usr/share/texmf-dist/tex/latex/graphics-def/pdftex.def
INPUT /usr/share/texmf-dist/tex/latex/adjustbox/adjustbox.sty
INPUT /usr/share/texmf-dist/tex/latex/adjustbox/adjustbox.sty
INPUT /usr/share/texmf-dist/tex/latex/xkeyval/xkeyval.sty
INPUT /usr/share/texmf-dist/tex/latex/xkeyval/xkeyval.sty
INPUT /usr/share/texmf-dist/tex/generic/xkeyval/xkeyval.tex
INPUT /usr/share/texmf-dist/tex/generic/xkeyval/xkvutils.tex
INPUT /usr/share/texmf-dist/tex/latex/adjustbox/adjcalc.sty
INPUT /usr/share/texmf-dist/tex/latex/adjustbox/adjcalc.sty
INPUT /usr/share/texmf-dist/tex/latex/adjustbox/trimclip.sty
INPUT /usr/share/texmf-dist/tex/latex/adjustbox/trimclip.sty
INPUT /usr/share/texmf-dist/tex/latex/collectbox/collectbox.sty
INPUT /usr/share/texmf-dist/tex/latex/collectbox/collectbox.sty
INPUT /usr/share/texmf-dist/tex/latex/adjustbox/tc-pdftex.def
INPUT /usr/share/texmf-dist/tex/latex/adjustbox/tc-pdftex.def
INPUT /usr/share/texmf-dist/tex/latex/ifoddpage/ifoddpage.sty
INPUT /usr/share/texmf-dist/tex/latex/ifoddpage/ifoddpage.sty
INPUT /usr/share/texmf-dist/tex/latex/ifoddpage/ifoddpage.sty
INPUT /usr/share/texmf-dist/tex/latex/varwidth/varwidth.sty
INPUT /usr/share/texmf-dist/tex/latex/varwidth/varwidth.sty
INPUT /usr/share/texmf-dist/tex/latex/varwidth/varwidth.sty
INPUT /usr/share/texmf-dist/tex/latex/graphics/rotating.sty
INPUT /usr/share/texmf-dist/tex/latex/graphics/rotating.sty
INPUT /usr/share/texmf-dist/tex/latex/base/ifthen.sty
INPUT /usr/share/texmf-dist/tex/latex/base/ifthen.sty
INPUT /usr/share/texmf-dist/tex/latex/preprint/authblk.sty
INPUT /usr/share/texmf-dist/tex/latex/preprint/authblk.sty
INPUT /usr/share/texmf-dist/tex/latex/tools/indentfirst.sty
INPUT /usr/share/texmf-dist/tex/latex/tools/indentfirst.sty
INPUT /usr/share/texmf-dist/tex/latex/lastpage/lastpage.sty
INPUT /usr/share/texmf-dist/tex/latex/lastpage/lastpage.sty
INPUT /usr/share/texmf-dist/tex/latex/lipsum/lipsum.sty
INPUT /usr/share/texmf-dist/tex/latex/lipsum/lipsum.sty
INPUT /usr/share/texmf-dist/tex/latex/l3kernel/expl3.sty
INPUT /usr/share/texmf-dist/tex/latex/l3kernel/expl3.sty
INPUT /usr/share/texmf-dist/tex/latex/l3kernel/expl3-code.tex
INPUT /usr/share/texmf-dist/tex/latex/l3kernel/expl3-code.tex
INPUT /usr/share/texmf-dist/fonts/map/fontname/texfonts.map
INPUT /usr/share/texmf-dist/fonts/tfm/public/cm/cmr10.tfm
INPUT /usr/share/texmf-dist/fonts/tfm/public/cm/cmr10.tfm
INPUT /usr/share/texmf-dist/fonts/tfm/public/cm/cmr10.tfm
INPUT /usr/share/texmf-dist/fonts/tfm/public/cm/cmr10.tfm
INPUT /usr/share/texmf-dist/fonts/tfm/public/cm/cmr10.tfm
INPUT /usr/share/texmf-dist/fonts/tfm/public/cm/cmr10.tfm
INPUT /usr/share/texmf-dist/fonts/tfm/public/cm/cmr10.tfm
INPUT /usr/share/texmf-dist/fonts/tfm/public/cm/cmr10.tfm
INPUT /usr/share/texmf-dist/fonts/tfm/public/cm/cmr10.tfm
INPUT /usr/share/texmf-dist/fonts/tfm/public/cm/cmr10.tfm
INPUT /usr/share/texmf-dist/tex/generic/unicode-data/UnicodeData.txt
INPUT /usr/share/texmf-dist/tex/generic/unicode-data/UnicodeData.txt
INPUT /dev/null
INPUT /usr/share/texmf-dist/tex/latex/l3kernel/l3pdfmode.def
INPUT /usr/share/texmf-dist/tex/latex/l3kernel/l3pdfmode.def
INPUT /usr/share/texmf-dist/tex/latex/l3packages/xparse/xparse.sty
INPUT /usr/share/texmf-dist/tex/latex/l3packages/xparse/xparse.sty
INPUT /usr/share/texmf-dist/tex/latex/lipsum/lipsum.ltd.tex
INPUT /usr/share/texmf-dist/tex/latex/lipsum/lipsum.ltd.tex
INPUT /usr/share/texmf-dist/tex/latex/subfig/subfig.sty
INPUT /usr/share/texmf-dist/tex/latex/subfig/subfig.sty
INPUT /usr/share/texmf-dist/tex/latex/caption/caption.sty
INPUT /usr/share/texmf-dist/tex/latex/caption/caption.sty
INPUT /usr/share/texmf-dist/tex/latex/caption/caption3.sty
INPUT /usr/share/texmf-dist/tex/latex/caption/caption3.sty
INPUT /usr/share/texmf-dist/tex/latex/oberdiek/epstopdf.sty
INPUT /usr/share/texmf-dist/tex/latex/oberdiek/epstopdf.sty
INPUT /usr/share/texmf-dist/tex/latex/oberdiek/epstopdf-base.sty
INPUT /usr/share/texmf-dist/tex/latex/oberdiek/epstopdf-base.sty
INPUT /usr/share/texmf-dist/tex/generic/oberdiek/infwarerr.sty
INPUT /usr/share/texmf-dist/tex/generic/oberdiek/infwarerr.sty
INPUT /usr/share/texmf-dist/tex/latex/oberdiek/grfext.sty
INPUT /usr/share/texmf-dist/tex/latex/oberdiek/grfext.sty
INPUT /usr/share/texmf-dist/tex/generic/oberdiek/kvdefinekeys.sty
INPUT /usr/share/texmf-dist/tex/generic/oberdiek/kvdefinekeys.sty
INPUT /usr/share/texmf-dist/tex/generic/oberdiek/ltxcmds.sty
INPUT /usr/share/texmf-dist/tex/generic/oberdiek/ltxcmds.sty
INPUT /usr/share/texmf-dist/tex/latex/oberdiek/kvoptions.sty
INPUT /usr/share/texmf-dist/tex/latex/oberdiek/kvoptions.sty
INPUT /usr/share/texmf-dist/tex/generic/oberdiek/kvsetkeys.sty
INPUT /usr/share/texmf-dist/tex/generic/oberdiek/kvsetkeys.sty
INPUT /usr/share/texmf-dist/tex/generic/oberdiek/etexcmds.sty
INPUT /usr/share/texmf-dist/tex/generic/oberdiek/etexcmds.sty
INPUT /usr/share/texmf-dist/tex/generic/oberdiek/ifluatex.sty
INPUT /usr/share/texmf-dist/tex/generic/oberdiek/ifluatex.sty
INPUT /usr/share/texmf-dist/tex/generic/oberdiek/pdftexcmds.sty
INPUT /usr/share/texmf-dist/tex/generic/oberdiek/pdftexcmds.sty
INPUT /usr/share/texmf-dist/tex/generic/oberdiek/ifpdf.sty
INPUT /usr/share/texmf-dist/tex/generic/oberdiek/ifpdf.sty
INPUT /usr/share/texmf-dist/tex/latex/latexconfig/epstopdf-sys.cfg
INPUT /usr/share/texmf-dist/tex/latex/latexconfig/epstopdf-sys.cfg
INPUT /usr/share/texmf-dist/tex/latex/geometry/geometry.sty
INPUT /usr/share/texmf-dist/tex/latex/geometry/geometry.sty
INPUT /usr/share/texmf-dist/tex/generic/oberdiek/ifvtex.sty
INPUT /usr/share/texmf-dist/tex/generic/oberdiek/ifvtex.sty
INPUT /usr/share/texmf-dist/tex/generic/ifxetex/ifxetex.sty
INPUT /usr/share/texmf-dist/tex/generic/ifxetex/ifxetex.sty
INPUT /usr/share/texmf-dist/tex/latex/titlesec/titlesec.sty
INPUT /usr/share/texmf-dist/tex/latex/titlesec/titlesec.sty
INPUT /usr/share/texmf-dist/tex/latex/lm/lmodern.sty
INPUT /usr/share/texmf-dist/tex/latex/lm/lmodern.sty
INPUT /home/librantara/Documents/INTERNSHIP_DAN_TA/LateX/internship2ta2019/Librantara Erlangga/Jurnal/Internship_2/main.aux
INPUT /home/librantara/Documents/INTERNSHIP_DAN_TA/LateX/internship2ta2019/Librantara Erlangga/Jurnal/Internship_2/main.aux
OUTPUT /home/librantara/Documents/INTERNSHIP_DAN_TA/LateX/internship2ta2019/Librantara Erlangga/Jurnal/Internship_2/main.aux
INPUT /usr/share/texmf-dist/tex/latex/lm/ot1lmr.fd
INPUT /usr/share/texmf-dist/tex/latex/lm/ot1lmr.fd
INPUT /usr/share/texmf-dist/fonts/tfm/public/lm/rm-lmr10.tfm
INPUT /usr/share/texmf-dist/tex/context/base/mkii/supp-pdf.mkii
INPUT /usr/share/texmf-dist/tex/context/base/mkii/supp-pdf.mkii
INPUT /usr/share/texmf-dist/fonts/tfm/public/lm/rm-lmr17.tfm
INPUT /usr/share/texmf-dist/fonts/tfm/public/lm/rm-lmbx12.tfm
INPUT /usr/share/texmf-dist/fonts/tfm/public/lm/rm-lmr12.tfm
INPUT /usr/share/texmf-dist/fonts/tfm/public/lm/rm-lmbx10.tfm
INPUT /usr/share/texmf-dist/fonts/tfm/public/lm/rm-lmr7.tfm
INPUT /usr/share/texmf-dist/fonts/tfm/public/lm/rm-lmr5.tfm
INPUT /usr/share/texmf-dist/tex/latex/lm/omllmm.fd
INPUT /usr/share/texmf-dist/tex/latex/lm/omllmm.fd
INPUT /usr/share/texmf-dist/fonts/tfm/public/lm/lmmi10.tfm
INPUT /usr/share/texmf-dist/fonts/tfm/public/lm/lmmi7.tfm
INPUT /usr/share/texmf-dist/fonts/tfm/public/lm/lmmi5.tfm
INPUT /usr/share/texmf-dist/tex/latex/lm/omslmsy.fd
INPUT /usr/share/texmf-dist/tex/latex/lm/omslmsy.fd
INPUT /usr/share/texmf-dist/fonts/tfm/public/lm/lmsy10.tfm
INPUT /usr/share/texmf-dist/fonts/tfm/public/lm/lmsy7.tfm
INPUT /usr/share/texmf-dist/fonts/tfm/public/lm/lmsy5.tfm
INPUT /usr/share/texmf-dist/tex/latex/lm/omxlmex.fd
INPUT /usr/share/texmf-dist/tex/latex/lm/omxlmex.fd
INPUT /usr/share/texmf-dist/fonts/tfm/public/lm/lmex10.tfm
INPUT /usr/share/texmf-dist/tex/latex/amsfonts/umsa.fd
INPUT /usr/share/texmf-dist/tex/latex/amsfonts/umsa.fd
INPUT /usr/share/texmf-dist/fonts/tfm/public/amsfonts/symbols/msam10.tfm
INPUT /usr/share/texmf-dist/fonts/tfm/public/amsfonts/symbols/msam7.tfm
INPUT /usr/share/texmf-dist/fonts/tfm/public/amsfonts/symbols/msam5.tfm
INPUT /usr/share/texmf-dist/tex/latex/amsfonts/umsb.fd
INPUT /usr/share/texmf-dist/tex/latex/amsfonts/umsb.fd
INPUT /usr/share/texmf-dist/fonts/tfm/public/amsfonts/symbols/msbm10.tfm
INPUT /usr/share/texmf-dist/fonts/tfm/public/amsfonts/symbols/msbm7.tfm
INPUT /usr/share/texmf-dist/fonts/tfm/public/amsfonts/symbols/msbm5.tfm
INPUT /usr/share/texmf-dist/fonts/tfm/public/lm/rm-lmbx7.tfm
INPUT /usr/share/texmf-dist/fonts/tfm/public/lm/rm-lmr9.tfm
INPUT /usr/share/texmf-dist/fonts/tfm/public/lm/rm-lmr6.tfm
INPUT /usr/share/texmf-dist/fonts/tfm/public/lm/lmmi9.tfm
INPUT /usr/share/texmf-dist/fonts/tfm/public/lm/lmmi6.tfm
INPUT /usr/share/texmf-dist/fonts/tfm/public/lm/lmsy9.tfm
INPUT /usr/share/texmf-dist/fonts/tfm/public/lm/lmsy6.tfm
INPUT /usr/share/texmf-dist/fonts/tfm/public/amsfonts/symbols/msam10.tfm
INPUT /usr/share/texmf-dist/fonts/tfm/public/amsfonts/symbols/msam7.tfm
INPUT /usr/share/texmf-dist/fonts/tfm/public/amsfonts/symbols/msbm10.tfm
INPUT /usr/share/texmf-dist/fonts/tfm/public/amsfonts/symbols/msbm7.tfm
INPUT /home/librantara/Documents/INTERNSHIP_DAN_TA/LateX/internship2ta2019/Librantara Erlangga/Jurnal/Internship_2/section/abstract.tex
INPUT /home/librantara/Documents/INTERNSHIP_DAN_TA/LateX/internship2ta2019/Librantara Erlangga/Jurnal/Internship_2/section/abstract.tex
INPUT /usr/share/texmf-dist/fonts/tfm/public/lm/rm-lmbxi10.tfm
INPUT /usr/share/texmf-dist/fonts/tfm/public/lm/rm-lmri9.tfm
INPUT /usr/share/texmf-dist/fonts/tfm/public/lm/rm-lmbxi10.tfm
INPUT /usr/share/texmf-dist/fonts/tfm/public/lm/rm-lmbx9.tfm
INPUT /usr/share/texmf-dist/tex/latex/lm/omslmr.fd
INPUT /usr/share/texmf-dist/tex/latex/lm/omslmr.fd
INPUT /usr/share/texmf-dist/fonts/tfm/public/lm/lmbsy10.tfm
INPUT /home/librantara/Documents/INTERNSHIP_DAN_TA/LateX/internship2ta2019/Librantara Erlangga/Jurnal/Internship_2/section/1.tex
INPUT /home/librantara/Documents/INTERNSHIP_DAN_TA/LateX/internship2ta2019/Librantara Erlangga/Jurnal/Internship_2/section/1.tex
INPUT /home/librantara/Documents/INTERNSHIP_DAN_TA/LateX/internship2ta2019/Librantara Erlangga/Jurnal/Internship_2/section/2.tex
INPUT /home/librantara/Documents/INTERNSHIP_DAN_TA/LateX/internship2ta2019/Librantara Erlangga/Jurnal/Internship_2/section/2.tex
INPUT /usr/share/texmf-dist/fonts/tfm/public/lm/rm-lmri10.tfm
OUTPUT /home/librantara/Documents/INTERNSHIP_DAN_TA/LateX/internship2ta2019/Librantara Erlangga/Jurnal/Internship_2/main.pdf
INPUT /var/lib/texmf/fonts/map/pdftex/updmap/pdftex.map
INPUT /home/librantara/Documents/INTERNSHIP_DAN_TA/LateX/internship2ta2019/Librantara Erlangga/Jurnal/Internship_2/section/3.tex
INPUT /home/librantara/Documents/INTERNSHIP_DAN_TA/LateX/internship2ta2019/Librantara Erlangga/Jurnal/Internship_2/section/3.tex
INPUT /home/librantara/Documents/INTERNSHIP_DAN_TA/LateX/internship2ta2019/Librantara Erlangga/Jurnal/Internship_2/figures/xp.png
INPUT /home/librantara/Documents/INTERNSHIP_DAN_TA/LateX/internship2ta2019/Librantara Erlangga/Jurnal/Internship_2/figures/xp.png
INPUT /home/librantara/Documents/INTERNSHIP_DAN_TA/LateX/internship2ta2019/Librantara Erlangga/Jurnal/Internship_2/figures/xp.png
INPUT /home/librantara/Documents/INTERNSHIP_DAN_TA/LateX/internship2ta2019/Librantara Erlangga/Jurnal/Internship_2/section/4.tex
INPUT /home/librantara/Documents/INTERNSHIP_DAN_TA/LateX/internship2ta2019/Librantara Erlangga/Jurnal/Internship_2/section/4.tex
INPUT /home/librantara/Documents/INTERNSHIP_DAN_TA/LateX/internship2ta2019/Librantara Erlangga/Jurnal/Internship_2/figures/ArsitekturSebelum.jpg
INPUT /home/librantara/Documents/INTERNSHIP_DAN_TA/LateX/internship2ta2019/Librantara Erlangga/Jurnal/Internship_2/figures/ArsitekturSebelum.jpg
INPUT /home/librantara/Documents/INTERNSHIP_DAN_TA/LateX/internship2ta2019/Librantara Erlangga/Jurnal/Internship_2/figures/ArsitekturSebelum.jpg
INPUT /home/librantara/Documents/INTERNSHIP_DAN_TA/LateX/internship2ta2019/Librantara Erlangga/Jurnal/Internship_2/figures/ArsitekturSesudah.jpg
INPUT /home/librantara/Documents/INTERNSHIP_DAN_TA/LateX/internship2ta2019/Librantara Erlangga/Jurnal/Internship_2/figures/ArsitekturSesudah.jpg
INPUT /home/librantara/Documents/INTERNSHIP_DAN_TA/LateX/internship2ta2019/Librantara Erlangga/Jurnal/Internship_2/figures/ArsitekturSesudah.jpg
INPUT /home/librantara/Documents/INTERNSHIP_DAN_TA/LateX/internship2ta2019/Librantara Erlangga/Jurnal/Internship_2/section/5.tex
INPUT /home/librantara/Documents/INTERNSHIP_DAN_TA/LateX/internship2ta2019/Librantara Erlangga/Jurnal/Internship_2/section/5.tex
INPUT /usr/share/texmf-dist/fonts/tfm/public/lm/rm-lmr8.tfm
INPUT /home/librantara/Documents/INTERNSHIP_DAN_TA/LateX/internship2ta2019/Librantara Erlangga/Jurnal/Internship_2/main.bbl
INPUT /home/librantara/Documents/INTERNSHIP_DAN_TA/LateX/internship2ta2019/Librantara Erlangga/Jurnal/Internship_2/main.bbl
INPUT /usr/share/texmf-dist/fonts/tfm/public/lm/rm-lmri8.tfm
INPUT /home/librantara/Documents/INTERNSHIP_DAN_TA/LateX/internship2ta2019/Librantara Erlangga/Jurnal/Internship_2/main.aux
INPUT /usr/share/texmf-dist/fonts/enc/dvips/lm/lm-rm.enc
INPUT /usr/share/texmf-dist/fonts/enc/dvips/lm/lm-mathsy.enc
INPUT /usr/share/texmf-dist/fonts/type1/public/lm/lmbsy10.pfb
INPUT /usr/share/texmf-dist/fonts/type1/public/lm/lmbx10.pfb
INPUT /usr/share/texmf-dist/fonts/type1/public/lm/lmbx12.pfb
INPUT /usr/share/texmf-dist/fonts/type1/public/lm/lmbx9.pfb
INPUT /usr/share/texmf-dist/fonts/type1/public/lm/lmbxi10.pfb
INPUT /usr/share/texmf-dist/fonts/type1/public/lm/lmr10.pfb
INPUT /usr/share/texmf-dist/fonts/type1/public/lm/lmr6.pfb
INPUT /usr/share/texmf-dist/fonts/type1/public/lm/lmr7.pfb
INPUT /usr/share/texmf-dist/fonts/type1/public/lm/lmr8.pfb
INPUT /usr/share/texmf-dist/fonts/type1/public/lm/lmr9.pfb
INPUT /usr/share/texmf-dist/fonts/type1/public/lm/lmri10.pfb
INPUT /usr/share/texmf-dist/fonts/type1/public/lm/lmri8.pfb
INPUT /usr/share/texmf-dist/fonts/type1/public/lm/lmri9.pfb
INPUT /usr/share/texmf-dist/fonts/type1/public/lm/lmsy10.pfb
INPUT /usr/share/texmf-dist/fonts/type1/public/amsfonts/symbols/msam10.pfb
